<svg xmlns="http://www.w3.org/2000/svg" style="display: none;">

    <symbol id="icon-film" viewBox="0 0 512 512">
        <path d="m400 288c-27 0-49-21-49-48 0-27 22-48 49-48 26 0 48 21 48 48 0 27-22 48-48 48m-129-128c-26 0-48-21-48-48 0-27 22-48 48-48 27 0 48 21 48 48 0 27-21 48-48 48m-16 80c0-9 7-16 16-16 9 0 16 7 16 16 0 9-7 16-16 16-9 0-16-7-16-16m16 176c-26 0-48-21-48-48 0-27 22-48 48-48 27 0 48 21 48 48 0 27-21 48-48 48m-128-128c-27 0-48-21-48-48 0-27 21-48 48-48 26 0 48 21 48 48 0 27-22 48-48 48m128-288c-133 0-241 107-241 240 0 108 72 199 171 230-34 13-68 13-96 5-37-10-63-33-72-59l-33 0c8 41 45 75 96 90 15 4 31 6 48 6 34 0 71-10 106-33 7 1 14 1 21 1 133 0 241-107 241-240 0-133-108-240-241-240"/>
    </symbol>

    <symbol id="icon-alarm" viewBox="0 0 512 512">
        <path d="m179 19l-160 161c-30-45-25-106 15-146 39-40 100-45 145-15z m314 161l-160-161c45-30 106-25 145 15 40 40 45 101 15 146z m-188 135c7 6 8 17 2 24-3 4-8 6-13 6-4 0-7-1-11-3l-54-45-1 0-2-3-2-2-1-3-1-4 0-1 0-34c0-9 8-17 17-17 9 0 17 8 17 17l0 26z m-55 112c-75 0-135-61-135-136 0-75 60-136 135-136 74 0 135 61 135 136 0 75-61 136-135 136z m0-340c-112 0-202 92-202 204 0 59 24 112 63 149l-43 43c-6 7-6 17 0 24 7 7 18 7 24 0l46-46c32 22 71 34 112 34 45 0 86-15 120-40l2 4 48 48c6 7 17 7 24 0 6-7 6-17 0-24l-48-48-2-1c36-37 58-87 58-143 0-112-90-204-202-204z"/>
    </symbol>

    <symbol id="icon-policeman" viewBox="0 0 512 512">
        <path d="m416 288c0-30-4-56-11-78-23 38-81 78-149 78-68 0-126-40-149-78-7 22-11 48-11 78 0 64 32 192 160 192 128 0 160-128 160-192z m-280-96c23 29 68 48 120 48 52 0 97-19 120-48l-47 0c-19 10-44 16-73 16-29 0-54-6-73-16z m88-70c0 0 0 19 32 38 32-19 32-38 32-38l0-39-32-19-32 19z m277-24c1 5-1 10-5 14-24 24-38 38-48 48l0 96-2 0c1 10 2 21 2 32 0 77-40 224-192 224-152 0-192-147-192-224 0-11 1-22 2-32l-2 0 0-96c-18-17-36-36-48-48-4-4-6-9-5-14 1-5 4-10 9-12l158-79c8-4 21-7 30-7l96 0c9 0 23 3 30 7l158 79c5 2 8 7 9 12z m-245 329c-25 0-48-13-64-32l128 0c-16 19-38 32-64 32z m60-139c-15 0-28 13-28 28 0 15 13 28 28 28 16 0 28-13 28-28 0-15-12-28-28-28z m-120 56c-15 0-28-13-28-28 0-15 13-28 28-28 15 0 28 13 28 28 0 15-13 28-28 28z"/>
    </symbol>

    <symbol id="icon-logo" viewBox="0 0 512 512">
        <path d="m318 359c-2 1-3 2-4 2-25 17-43 12-61-17 5-7 9-14 14-20 7-8 14-16 22-24 1-1 6 0 8 1 5 2 10 4 14-2 2-2 7-2 10-3 2 0 4 1 5 1 13-4 14 5 15 13 4 19-6 43-23 49m-113-93c-2-1-4-1-6-2-1-1-3-3-4-4-2-15-4-31-5-46-1-6 1-11 8-13 6-3 12-8 16-13 9-8 20-10 31-10 2 0 4 0 5 1 12 12 25 24 37 36 4 4 3 8 0 13-3 4-5 10-6 16 0 11-6 20-14 27-2 1-4 2-5 1-19-2-38-4-57-6m-31 85c-14-10-25-22-36-35-8-9-6-33 1-41 14 4 27 8 41 12 8 2 11 7 10 15 0 7 3 12 8 17 6 6 11 14 16 21-10 18-25 23-40 11m214-144c0 11-1 25-2 39 0 3-3 7-5 8-11 3-22 5-36 9 6-15 0-23-9-29-3-2-5-5-7-9-3-4-5-9-9-16 3-5 8-13 10-21 2-8 1-17 1-27 13 6 24 11 36 17-8-24-50-57-68-53 1 2 2 4 2 7 1 5-1 8-7 7-19-1-34 8-52 16-5-14-16-20-32-17-2 0-4 0-7 0 2-8 3-14 4-21-25 6-43 21-58 43 9-1 16-1 22-2-1 11-3 20-3 29 0 9-2 17-12 21-5 2-8 7-11 11-4 6-8 12-12 17-8-1-14-4-14-14 0-4-2-9-3-14-2 17-4 33-5 49-1 5 0 9 1 13 3 23 21 39 25 61 0 1 1 1 2 2 17 16 34 33 59 35 2 1 4 1 5 3 17 14 36 15 56 9 9-3 18-7 29-2 18 7 53-17 59-38 3-8 8-14 14-19 22-17 25-43 33-66 6-17 1-35-6-48m69 67c0 98-60 177-151 202-2 0-4 1-5 1l0-85c-10 3-21 5-32 6l0 84c-8 1-16 1-23 1l0-85c-11-1-22-3-32-6l0 87c-75-16-140-75-155-155-3-14-4-29-4-43 0-83 0-165 0-247 0-3 0-9 0-9l159 0 0 87c10-3 21-5 32-6l0-81 23 0 0 81c11 1 22 3 32 6l0-87 156 0 0 11c0 79 0 159 0 238m26-153c0-31 0-63 0-95l0-11 0-15-454 0 0 15c0 0 0 6 0 9 0 19 0 39 0 58 0 66 0 135 0 202 1 19 2 35 5 49 5 26 14 50 28 73 14 21 31 40 51 56 40 32 90 50 141 50 20 0 40-3 59-8 50-14 93-43 123-83 30-41 46-91 47-144 0-52 0-105 0-156"/>
    </symbol>

    <symbol id="icon-king" viewBox="0 0 512 512">
        <path d="m512 64c0-29-23-52-51-52-28 0-51 23-51 52 0 18 8 33 21 43l-90 184-59-182c15-9 25-26 25-45 0-29-23-52-51-52-28 0-51 23-51 52 0 19 10 36 25 45l-59 182-90-184c13-10 21-25 21-43 0-29-23-52-51-52-28 0-51 23-51 52 0 24 16 44 38 50l30 281 376 0 30-281c22-6 38-26 38-50m-68 373l0 56c0 4-3 7-7 7l-362 0c-4 0-7-3-7-7l0-56c0-4 3-7 7-7l362 0c4 0 7 3 7 7"/>
    </symbol>

    <symbol id="icon-labels" viewBox="0 0 512 512">
        <path d="m224 0l0 64-128 0 0 128 128 0 0 32-160 0-64 64 64 64 160 0 0 160 64 0 0-160 128 0 0-128-128 0 0-32 160 0 64-64-64-64-160 0 0-64z"/>
    </symbol>

    <symbol id="icon-beer" viewBox="0 0 512 512">
        <path d="m449 320c0 35-27 64-59 64l-10 0-16-157c0-1 2-2 3-3l23 0c32 0 59 29 59 64z m-386-192c0-35 27-64 59-64 11 0 21 3 30 9 9-6 19-9 30-9 2 0 5 0 8 1 10-20 29-33 51-33 22 0 42 13 52 33 2-1 5-1 8-1 10 0 20 3 29 9 9-6 19-9 30-9 33 0 59 29 59 64 0 35-26 64-59 64-3 0-5-1-8-1 0 0 0 1-1 1 0 0 0 1 0 1-11 18-29 31-50 31-3 0-4-1-6-1-16-1-29-9-39-21-6 7-12 12-20 16-10 22-30 38-54 38l0 16c0 9-7 16-15 16-8 0-15-7-15-16l0-57c-9-5-16-13-21-23 0 0-1-1-1-1-2 0-5 1-8 1-32 0-59-29-59-64z m357 70c18-17 29-42 29-70 0-53-40-96-89-96-10 0-20 2-30 6-7-3-15-5-23-6-16-20-40-32-66-32-25 0-49 12-66 32-8 1-15 3-23 6-9-4-20-6-30-6-49 0-89 43-89 96 0 50 37 92 83 96 1 1 2 2 3 3l-25 243c-1 7 2 13 7 16 16 10 55 26 140 26 85 0 125-16 140-26 5-3 8-9 8-16l-6-54 7 0c49 0 89-43 89-96l0-32c0-41-25-76-59-90z"/>
    </symbol>

    <symbol id="icon-luggage" viewBox="0 0 512 512">
        <path d="m448 117l0 383c35 0 64-32 64-70l0-244c0-38-29-69-64-69z m-128-70l-128 0 0 70 128 0z m32 70l64 0 0 383-320 0 0-383 64 0 0-70c0-19 14-35 32-35l128 0c18 0 32 16 32 35z m-288 0l0 383c-35 0-64-32-64-70l0-244c0-38 29-69 64-69z"/>
    </symbol>

    <symbol id="icon-wall" viewBox="0 0 512 512">
        <path d="m446 0l-29 0c-8 0-15 7-15 16l0 48-58 0 0-48c0-9-7-16-15-16l-29 0c-8 0-15 7-15 16l0 48-58 0 0-48c0-9-7-16-15-16l-29 0c-8 0-15 7-15 16l0 48-58 0 0-48c0-9-7-16-15-16l-29 0c-8 0-15 7-15 16l0 128c0 9 7 16 15 16l44 0-28 335c0 4 1 8 4 12 2 3 6 5 10 5l131 0 0-64c0-18 13-32 29-32 16 0 29 14 29 32l0 64 114 0c9 0 17-4 22-10 6-7 8-16 8-25l-27-317 44 0c8 0 15-7 15-16l0-128c0-9-7-16-15-16"/>
    </symbol>

    <symbol id="icon-cup" viewBox="0 0 512 512">
        <path d="m480 154c0 28 0 68-64 81l0-133 64 0z m-177 46l25 91-73-55-73 55 26-91-71-58 89-2 29-89 30 89 89 2z m-207 35c-64-13-64-53-64-81l0-52 64 0z m320-167l32-68-384 0 32 68-96 0 0 86c0 32 0 104 109 117 20 51 63 90 115 101l0 38c0 68-128 68-160 68l0 34 384 0 0-34c-32 0-160 0-160-68l0-38c52-11 95-50 116-101 108-13 108-85 108-117l0-86z"/>
    </symbol>

</svg>
